^F:\DOCUMENTS\DOCUMENTS\DROPBOX\DROPBOX\UNI WORK\FINAL PROJECT\FINALPROJECT\IMPLEMENTATION\SPACEGAME\SPACEGAME\CELESTIAL.CPP
/c /I"F:\Ogre1.9RC2\OGRE-SDK-1.9.0-vc110-x86-02.11.2013\include" /I"F:\Ogre1.9RC2\OGRE-SDK-1.9.0-vc110-x86-02.11.2013\include\OIS" /I"F:\Ogre1.9RC2\OGRE-SDK-1.9.0-vc110-x86-02.11.2013\include\OGRE" /I"F:\Ogre1.9RC2\OGRE-SDK-1.9.0-vc110-x86-02.11.2013\include\OGRE\Overlay" /I"F:\Ogre1.9RC2\boost-1.55-rev86545-vc110-x86-02.11.2013" /I"F:\Documents\Documents\Dropbox\Dropbox\Uni Work\FINAL PROJECT\OculusSDK\LibOVR\Include" /I"F:\Ogre1.9RC2\btogre-master\include" /I"F:\Ogre1.9RC2\btogre-master" /I"F:\Ogre1.9RC2\OGRE-SDK-1.9.0-vc110-x86-02.11.2013\include\OgreProcedural" /Z7 /nologo /W3 /WX- /Od /Oy- /GL /D OVR_BUILD_DEBUG /D WIN32 /D _DEBUG /D _WINDOWS /D _MBCS /Gm /EHsc /RTC1 /MDd /GS /fp:precise /Zc:wchar_t /Zc:forScope /Fo"OBJ\DEBUG-X86\\" /Fd"BIN\DEBUG\SPACEGAME_D.PDB" /Gd /TP /analyze- F:\DOCUMENTS\DOCUMENTS\DROPBOX\DROPBOX\UNI WORK\FINAL PROJECT\FINALPROJECT\IMPLEMENTATION\SPACEGAME\SPACEGAME\CELESTIAL.CPP
^F:\DOCUMENTS\DOCUMENTS\DROPBOX\DROPBOX\UNI WORK\FINAL PROJECT\FINALPROJECT\IMPLEMENTATION\SPACEGAME\SPACEGAME\ENEMY.CPP
/c /I"F:\Ogre1.9RC2\OGRE-SDK-1.9.0-vc110-x86-02.11.2013\include" /I"F:\Ogre1.9RC2\OGRE-SDK-1.9.0-vc110-x86-02.11.2013\include\OIS" /I"F:\Ogre1.9RC2\OGRE-SDK-1.9.0-vc110-x86-02.11.2013\include\OGRE" /I"F:\Ogre1.9RC2\OGRE-SDK-1.9.0-vc110-x86-02.11.2013\include\OGRE\Overlay" /I"F:\Ogre1.9RC2\boost-1.55-rev86545-vc110-x86-02.11.2013" /I"F:\Documents\Documents\Dropbox\Dropbox\Uni Work\FINAL PROJECT\OculusSDK\LibOVR\Include" /I"F:\Ogre1.9RC2\btogre-master\include" /I"F:\Ogre1.9RC2\btogre-master" /I"F:\Ogre1.9RC2\OGRE-SDK-1.9.0-vc110-x86-02.11.2013\include\OgreProcedural" /Z7 /nologo /W3 /WX- /Od /Oy- /GL /D OVR_BUILD_DEBUG /D WIN32 /D _DEBUG /D _WINDOWS /D _MBCS /Gm /EHsc /RTC1 /MDd /GS /fp:precise /Zc:wchar_t /Zc:forScope /Fo"OBJ\DEBUG-X86\\" /Fd"BIN\DEBUG\SPACEGAME_D.PDB" /Gd /TP /analyze- F:\DOCUMENTS\DOCUMENTS\DROPBOX\DROPBOX\UNI WORK\FINAL PROJECT\FINALPROJECT\IMPLEMENTATION\SPACEGAME\SPACEGAME\ENEMY.CPP
^F:\DOCUMENTS\DOCUMENTS\DROPBOX\DROPBOX\UNI WORK\FINAL PROJECT\FINALPROJECT\IMPLEMENTATION\SPACEGAME\SPACEGAME\ENGINE.CPP
/c /I"F:\Ogre1.9RC2\OGRE-SDK-1.9.0-vc110-x86-02.11.2013\include" /I"F:\Ogre1.9RC2\OGRE-SDK-1.9.0-vc110-x86-02.11.2013\include\OIS" /I"F:\Ogre1.9RC2\OGRE-SDK-1.9.0-vc110-x86-02.11.2013\include\OGRE" /I"F:\Ogre1.9RC2\OGRE-SDK-1.9.0-vc110-x86-02.11.2013\include\OGRE\Overlay" /I"F:\Ogre1.9RC2\boost-1.55-rev86545-vc110-x86-02.11.2013" /I"F:\Documents\Documents\Dropbox\Dropbox\Uni Work\FINAL PROJECT\OculusSDK\LibOVR\Include" /I"F:\Ogre1.9RC2\btogre-master\include" /I"F:\Ogre1.9RC2\btogre-master" /I"F:\Ogre1.9RC2\OGRE-SDK-1.9.0-vc110-x86-02.11.2013\include\OgreProcedural" /Z7 /nologo /W3 /WX- /Od /Oy- /GL /D OVR_BUILD_DEBUG /D WIN32 /D _DEBUG /D _WINDOWS /D _MBCS /Gm /EHsc /RTC1 /MDd /GS /fp:precise /Zc:wchar_t /Zc:forScope /Fo"OBJ\DEBUG-X86\\" /Fd"BIN\DEBUG\SPACEGAME_D.PDB" /Gd /TP /analyze- F:\DOCUMENTS\DOCUMENTS\DROPBOX\DROPBOX\UNI WORK\FINAL PROJECT\FINALPROJECT\IMPLEMENTATION\SPACEGAME\SPACEGAME\ENGINE.CPP
^F:\DOCUMENTS\DOCUMENTS\DROPBOX\DROPBOX\UNI WORK\FINAL PROJECT\FINALPROJECT\IMPLEMENTATION\SPACEGAME\SPACEGAME\ENGINESTATEMANAGER.CPP
/c /I"F:\Ogre1.9RC2\OGRE-SDK-1.9.0-vc110-x86-02.11.2013\include" /I"F:\Ogre1.9RC2\OGRE-SDK-1.9.0-vc110-x86-02.11.2013\include\OIS" /I"F:\Ogre1.9RC2\OGRE-SDK-1.9.0-vc110-x86-02.11.2013\include\OGRE" /I"F:\Ogre1.9RC2\OGRE-SDK-1.9.0-vc110-x86-02.11.2013\include\OGRE\Overlay" /I"F:\Ogre1.9RC2\boost-1.55-rev86545-vc110-x86-02.11.2013" /I"F:\Documents\Documents\Dropbox\Dropbox\Uni Work\FINAL PROJECT\OculusSDK\LibOVR\Include" /I"F:\Ogre1.9RC2\btogre-master\include" /I"F:\Ogre1.9RC2\btogre-master" /I"F:\Ogre1.9RC2\OGRE-SDK-1.9.0-vc110-x86-02.11.2013\include\OgreProcedural" /Z7 /nologo /W3 /WX- /Od /Oy- /GL /D OVR_BUILD_DEBUG /D WIN32 /D _DEBUG /D _WINDOWS /D _MBCS /Gm /EHsc /RTC1 /MDd /GS /fp:precise /Zc:wchar_t /Zc:forScope /Fo"OBJ\DEBUG-X86\\" /Fd"BIN\DEBUG\SPACEGAME_D.PDB" /Gd /TP /analyze- F:\DOCUMENTS\DOCUMENTS\DROPBOX\DROPBOX\UNI WORK\FINAL PROJECT\FINALPROJECT\IMPLEMENTATION\SPACEGAME\SPACEGAME\ENGINESTATEMANAGER.CPP
^F:\DOCUMENTS\DOCUMENTS\DROPBOX\DROPBOX\UNI WORK\FINAL PROJECT\FINALPROJECT\IMPLEMENTATION\SPACEGAME\SPACEGAME\GAME.CPP
/c /I"F:\Ogre1.9RC2\OGRE-SDK-1.9.0-vc110-x86-02.11.2013\include" /I"F:\Ogre1.9RC2\OGRE-SDK-1.9.0-vc110-x86-02.11.2013\include\OIS" /I"F:\Ogre1.9RC2\OGRE-SDK-1.9.0-vc110-x86-02.11.2013\include\OGRE" /I"F:\Ogre1.9RC2\OGRE-SDK-1.9.0-vc110-x86-02.11.2013\include\OGRE\Overlay" /I"F:\Ogre1.9RC2\boost-1.55-rev86545-vc110-x86-02.11.2013" /I"F:\Documents\Documents\Dropbox\Dropbox\Uni Work\FINAL PROJECT\OculusSDK\LibOVR\Include" /I"F:\Ogre1.9RC2\btogre-master\include" /I"F:\Ogre1.9RC2\btogre-master" /I"F:\Ogre1.9RC2\OGRE-SDK-1.9.0-vc110-x86-02.11.2013\include\OgreProcedural" /Z7 /nologo /W3 /WX- /Od /Oy- /GL /D OVR_BUILD_DEBUG /D WIN32 /D _DEBUG /D _WINDOWS /D _MBCS /Gm /EHsc /RTC1 /MDd /GS /fp:precise /Zc:wchar_t /Zc:forScope /Fo"OBJ\DEBUG-X86\\" /Fd"BIN\DEBUG\SPACEGAME_D.PDB" /Gd /TP /analyze- F:\DOCUMENTS\DOCUMENTS\DROPBOX\DROPBOX\UNI WORK\FINAL PROJECT\FINALPROJECT\IMPLEMENTATION\SPACEGAME\SPACEGAME\GAME.CPP
^F:\DOCUMENTS\DOCUMENTS\DROPBOX\DROPBOX\UNI WORK\FINAL PROJECT\FINALPROJECT\IMPLEMENTATION\SPACEGAME\SPACEGAME\GAMEENTITY.CPP
/c /I"F:\Ogre1.9RC2\OGRE-SDK-1.9.0-vc110-x86-02.11.2013\include" /I"F:\Ogre1.9RC2\OGRE-SDK-1.9.0-vc110-x86-02.11.2013\include\OIS" /I"F:\Ogre1.9RC2\OGRE-SDK-1.9.0-vc110-x86-02.11.2013\include\OGRE" /I"F:\Ogre1.9RC2\OGRE-SDK-1.9.0-vc110-x86-02.11.2013\include\OGRE\Overlay" /I"F:\Ogre1.9RC2\boost-1.55-rev86545-vc110-x86-02.11.2013" /I"F:\Documents\Documents\Dropbox\Dropbox\Uni Work\FINAL PROJECT\OculusSDK\LibOVR\Include" /I"F:\Ogre1.9RC2\btogre-master\include" /I"F:\Ogre1.9RC2\btogre-master" /I"F:\Ogre1.9RC2\OGRE-SDK-1.9.0-vc110-x86-02.11.2013\include\OgreProcedural" /Z7 /nologo /W3 /WX- /Od /Oy- /GL /D OVR_BUILD_DEBUG /D WIN32 /D _DEBUG /D _WINDOWS /D _MBCS /Gm /EHsc /RTC1 /MDd /GS /fp:precise /Zc:wchar_t /Zc:forScope /Fo"OBJ\DEBUG-X86\\" /Fd"BIN\DEBUG\SPACEGAME_D.PDB" /Gd /TP /analyze- F:\DOCUMENTS\DOCUMENTS\DROPBOX\DROPBOX\UNI WORK\FINAL PROJECT\FINALPROJECT\IMPLEMENTATION\SPACEGAME\SPACEGAME\GAMEENTITY.CPP
^F:\DOCUMENTS\DOCUMENTS\DROPBOX\DROPBOX\UNI WORK\FINAL PROJECT\FINALPROJECT\IMPLEMENTATION\SPACEGAME\SPACEGAME\GAMESTATE.CPP
/c /I"F:\Ogre1.9RC2\OGRE-SDK-1.9.0-vc110-x86-02.11.2013\include" /I"F:\Ogre1.9RC2\OGRE-SDK-1.9.0-vc110-x86-02.11.2013\include\OIS" /I"F:\Ogre1.9RC2\OGRE-SDK-1.9.0-vc110-x86-02.11.2013\include\OGRE" /I"F:\Ogre1.9RC2\OGRE-SDK-1.9.0-vc110-x86-02.11.2013\include\OGRE\Overlay" /I"F:\Ogre1.9RC2\boost-1.55-rev86545-vc110-x86-02.11.2013" /I"F:\Documents\Documents\Dropbox\Dropbox\Uni Work\FINAL PROJECT\OculusSDK\LibOVR\Include" /I"F:\Ogre1.9RC2\btogre-master\include" /I"F:\Ogre1.9RC2\btogre-master" /I"F:\Ogre1.9RC2\OGRE-SDK-1.9.0-vc110-x86-02.11.2013\include\OgreProcedural" /Z7 /nologo /W3 /WX- /Od /Oy- /GL /D OVR_BUILD_DEBUG /D WIN32 /D _DEBUG /D _WINDOWS /D _MBCS /Gm /EHsc /RTC1 /MDd /GS /fp:precise /Zc:wchar_t /Zc:forScope /Fo"OBJ\DEBUG-X86\\" /Fd"BIN\DEBUG\SPACEGAME_D.PDB" /Gd /TP /analyze- F:\DOCUMENTS\DOCUMENTS\DROPBOX\DROPBOX\UNI WORK\FINAL PROJECT\FINALPROJECT\IMPLEMENTATION\SPACEGAME\SPACEGAME\GAMESTATE.CPP
^F:\DOCUMENTS\DOCUMENTS\DROPBOX\DROPBOX\UNI WORK\FINAL PROJECT\FINALPROJECT\IMPLEMENTATION\SPACEGAME\SPACEGAME\MAIN.CPP
/c /I"F:\Ogre1.9RC2\OGRE-SDK-1.9.0-vc110-x86-02.11.2013\include" /I"F:\Ogre1.9RC2\OGRE-SDK-1.9.0-vc110-x86-02.11.2013\include\OIS" /I"F:\Ogre1.9RC2\OGRE-SDK-1.9.0-vc110-x86-02.11.2013\include\OGRE" /I"F:\Ogre1.9RC2\OGRE-SDK-1.9.0-vc110-x86-02.11.2013\include\OGRE\Overlay" /I"F:\Ogre1.9RC2\boost-1.55-rev86545-vc110-x86-02.11.2013" /I"F:\Documents\Documents\Dropbox\Dropbox\Uni Work\FINAL PROJECT\OculusSDK\LibOVR\Include" /I"F:\Ogre1.9RC2\btogre-master\include" /I"F:\Ogre1.9RC2\btogre-master" /I"F:\Ogre1.9RC2\OGRE-SDK-1.9.0-vc110-x86-02.11.2013\include\OgreProcedural" /Z7 /nologo /W3 /WX- /Od /Oy- /GL /D OVR_BUILD_DEBUG /D WIN32 /D _DEBUG /D _WINDOWS /D _MBCS /Gm /EHsc /RTC1 /MDd /GS /fp:precise /Zc:wchar_t /Zc:forScope /Fo"OBJ\DEBUG-X86\\" /Fd"BIN\DEBUG\SPACEGAME_D.PDB" /Gd /TP /analyze- F:\DOCUMENTS\DOCUMENTS\DROPBOX\DROPBOX\UNI WORK\FINAL PROJECT\FINALPROJECT\IMPLEMENTATION\SPACEGAME\SPACEGAME\MAIN.CPP
^F:\DOCUMENTS\DOCUMENTS\DROPBOX\DROPBOX\UNI WORK\FINAL PROJECT\FINALPROJECT\IMPLEMENTATION\SPACEGAME\SPACEGAME\MENUSTATE.CPP
/c /I"F:\Ogre1.9RC2\OGRE-SDK-1.9.0-vc110-x86-02.11.2013\include" /I"F:\Ogre1.9RC2\OGRE-SDK-1.9.0-vc110-x86-02.11.2013\include\OIS" /I"F:\Ogre1.9RC2\OGRE-SDK-1.9.0-vc110-x86-02.11.2013\include\OGRE" /I"F:\Ogre1.9RC2\OGRE-SDK-1.9.0-vc110-x86-02.11.2013\include\OGRE\Overlay" /I"F:\Ogre1.9RC2\boost-1.55-rev86545-vc110-x86-02.11.2013" /I"F:\Documents\Documents\Dropbox\Dropbox\Uni Work\FINAL PROJECT\OculusSDK\LibOVR\Include" /I"F:\Ogre1.9RC2\btogre-master\include" /I"F:\Ogre1.9RC2\btogre-master" /I"F:\Ogre1.9RC2\OGRE-SDK-1.9.0-vc110-x86-02.11.2013\include\OgreProcedural" /Z7 /nologo /W3 /WX- /Od /Oy- /GL /D OVR_BUILD_DEBUG /D WIN32 /D _DEBUG /D _WINDOWS /D _MBCS /Gm /EHsc /RTC1 /MDd /GS /fp:precise /Zc:wchar_t /Zc:forScope /Fo"OBJ\DEBUG-X86\\" /Fd"BIN\DEBUG\SPACEGAME_D.PDB" /Gd /TP /analyze- F:\DOCUMENTS\DOCUMENTS\DROPBOX\DROPBOX\UNI WORK\FINAL PROJECT\FINALPROJECT\IMPLEMENTATION\SPACEGAME\SPACEGAME\MENUSTATE.CPP
^F:\DOCUMENTS\DOCUMENTS\DROPBOX\DROPBOX\UNI WORK\FINAL PROJECT\FINALPROJECT\IMPLEMENTATION\SPACEGAME\SPACEGAME\MOVEABLEOBJECT.CPP
/c /I"F:\Ogre1.9RC2\OGRE-SDK-1.9.0-vc110-x86-02.11.2013\include" /I"F:\Ogre1.9RC2\OGRE-SDK-1.9.0-vc110-x86-02.11.2013\include\OIS" /I"F:\Ogre1.9RC2\OGRE-SDK-1.9.0-vc110-x86-02.11.2013\include\OGRE" /I"F:\Ogre1.9RC2\OGRE-SDK-1.9.0-vc110-x86-02.11.2013\include\OGRE\Overlay" /I"F:\Ogre1.9RC2\boost-1.55-rev86545-vc110-x86-02.11.2013" /I"F:\Documents\Documents\Dropbox\Dropbox\Uni Work\FINAL PROJECT\OculusSDK\LibOVR\Include" /I"F:\Ogre1.9RC2\btogre-master\include" /I"F:\Ogre1.9RC2\btogre-master" /I"F:\Ogre1.9RC2\OGRE-SDK-1.9.0-vc110-x86-02.11.2013\include\OgreProcedural" /Z7 /nologo /W3 /WX- /Od /Oy- /GL /D OVR_BUILD_DEBUG /D WIN32 /D _DEBUG /D _WINDOWS /D _MBCS /Gm /EHsc /RTC1 /MDd /GS /fp:precise /Zc:wchar_t /Zc:forScope /Fo"OBJ\DEBUG-X86\\" /Fd"BIN\DEBUG\SPACEGAME_D.PDB" /Gd /TP /analyze- F:\DOCUMENTS\DOCUMENTS\DROPBOX\DROPBOX\UNI WORK\FINAL PROJECT\FINALPROJECT\IMPLEMENTATION\SPACEGAME\SPACEGAME\MOVEABLEOBJECT.CPP
^F:\DOCUMENTS\DOCUMENTS\DROPBOX\DROPBOX\UNI WORK\FINAL PROJECT\FINALPROJECT\IMPLEMENTATION\SPACEGAME\SPACEGAME\MOVEABLEOBJMOTIONSTATE.CPP
/c /I"F:\Ogre1.9RC2\OGRE-SDK-1.9.0-vc110-x86-02.11.2013\include" /I"F:\Ogre1.9RC2\OGRE-SDK-1.9.0-vc110-x86-02.11.2013\include\OIS" /I"F:\Ogre1.9RC2\OGRE-SDK-1.9.0-vc110-x86-02.11.2013\include\OGRE" /I"F:\Ogre1.9RC2\OGRE-SDK-1.9.0-vc110-x86-02.11.2013\include\OGRE\Overlay" /I"F:\Ogre1.9RC2\boost-1.55-rev86545-vc110-x86-02.11.2013" /I"F:\Documents\Documents\Dropbox\Dropbox\Uni Work\FINAL PROJECT\OculusSDK\LibOVR\Include" /I"F:\Ogre1.9RC2\btogre-master\include" /I"F:\Ogre1.9RC2\btogre-master" /I"F:\Ogre1.9RC2\OGRE-SDK-1.9.0-vc110-x86-02.11.2013\include\OgreProcedural" /Z7 /nologo /W3 /WX- /Od /Oy- /GL /D OVR_BUILD_DEBUG /D WIN32 /D _DEBUG /D _WINDOWS /D _MBCS /Gm /EHsc /RTC1 /MDd /GS /fp:precise /Zc:wchar_t /Zc:forScope /Fo"OBJ\DEBUG-X86\\" /Fd"BIN\DEBUG\SPACEGAME_D.PDB" /Gd /TP /analyze- F:\DOCUMENTS\DOCUMENTS\DROPBOX\DROPBOX\UNI WORK\FINAL PROJECT\FINALPROJECT\IMPLEMENTATION\SPACEGAME\SPACEGAME\MOVEABLEOBJMOTIONSTATE.CPP
^F:\DOCUMENTS\DOCUMENTS\DROPBOX\DROPBOX\UNI WORK\FINAL PROJECT\FINALPROJECT\IMPLEMENTATION\SPACEGAME\SPACEGAME\OCULUS.CPP
/c /I"F:\Ogre1.9RC2\OGRE-SDK-1.9.0-vc110-x86-02.11.2013\include" /I"F:\Ogre1.9RC2\OGRE-SDK-1.9.0-vc110-x86-02.11.2013\include\OIS" /I"F:\Ogre1.9RC2\OGRE-SDK-1.9.0-vc110-x86-02.11.2013\include\OGRE" /I"F:\Ogre1.9RC2\OGRE-SDK-1.9.0-vc110-x86-02.11.2013\include\OGRE\Overlay" /I"F:\Ogre1.9RC2\boost-1.55-rev86545-vc110-x86-02.11.2013" /I"F:\Documents\Documents\Dropbox\Dropbox\Uni Work\FINAL PROJECT\OculusSDK\LibOVR\Include" /I"F:\Ogre1.9RC2\btogre-master\include" /I"F:\Ogre1.9RC2\btogre-master" /I"F:\Ogre1.9RC2\OGRE-SDK-1.9.0-vc110-x86-02.11.2013\include\OgreProcedural" /Z7 /nologo /W3 /WX- /Od /Oy- /GL /D OVR_BUILD_DEBUG /D WIN32 /D _DEBUG /D _WINDOWS /D _MBCS /Gm /EHsc /RTC1 /MDd /GS /fp:precise /Zc:wchar_t /Zc:forScope /Fo"OBJ\DEBUG-X86\\" /Fd"BIN\DEBUG\SPACEGAME_D.PDB" /Gd /TP /analyze- F:\DOCUMENTS\DOCUMENTS\DROPBOX\DROPBOX\UNI WORK\FINAL PROJECT\FINALPROJECT\IMPLEMENTATION\SPACEGAME\SPACEGAME\OCULUS.CPP
^F:\DOCUMENTS\DOCUMENTS\DROPBOX\DROPBOX\UNI WORK\FINAL PROJECT\FINALPROJECT\IMPLEMENTATION\SPACEGAME\SPACEGAME\PAUSESTATE.CPP
/c /I"F:\Ogre1.9RC2\OGRE-SDK-1.9.0-vc110-x86-02.11.2013\include" /I"F:\Ogre1.9RC2\OGRE-SDK-1.9.0-vc110-x86-02.11.2013\include\OIS" /I"F:\Ogre1.9RC2\OGRE-SDK-1.9.0-vc110-x86-02.11.2013\include\OGRE" /I"F:\Ogre1.9RC2\OGRE-SDK-1.9.0-vc110-x86-02.11.2013\include\OGRE\Overlay" /I"F:\Ogre1.9RC2\boost-1.55-rev86545-vc110-x86-02.11.2013" /I"F:\Documents\Documents\Dropbox\Dropbox\Uni Work\FINAL PROJECT\OculusSDK\LibOVR\Include" /I"F:\Ogre1.9RC2\btogre-master\include" /I"F:\Ogre1.9RC2\btogre-master" /I"F:\Ogre1.9RC2\OGRE-SDK-1.9.0-vc110-x86-02.11.2013\include\OgreProcedural" /Z7 /nologo /W3 /WX- /Od /Oy- /GL /D OVR_BUILD_DEBUG /D WIN32 /D _DEBUG /D _WINDOWS /D _MBCS /Gm /EHsc /RTC1 /MDd /GS /fp:precise /Zc:wchar_t /Zc:forScope /Fo"OBJ\DEBUG-X86\\" /Fd"BIN\DEBUG\SPACEGAME_D.PDB" /Gd /TP /analyze- F:\DOCUMENTS\DOCUMENTS\DROPBOX\DROPBOX\UNI WORK\FINAL PROJECT\FINALPROJECT\IMPLEMENTATION\SPACEGAME\SPACEGAME\PAUSESTATE.CPP
^F:\DOCUMENTS\DOCUMENTS\DROPBOX\DROPBOX\UNI WORK\FINAL PROJECT\FINALPROJECT\IMPLEMENTATION\SPACEGAME\SPACEGAME\PHYSICS.CPP
/c /I"F:\Ogre1.9RC2\OGRE-SDK-1.9.0-vc110-x86-02.11.2013\include" /I"F:\Ogre1.9RC2\OGRE-SDK-1.9.0-vc110-x86-02.11.2013\include\OIS" /I"F:\Ogre1.9RC2\OGRE-SDK-1.9.0-vc110-x86-02.11.2013\include\OGRE" /I"F:\Ogre1.9RC2\OGRE-SDK-1.9.0-vc110-x86-02.11.2013\include\OGRE\Overlay" /I"F:\Ogre1.9RC2\boost-1.55-rev86545-vc110-x86-02.11.2013" /I"F:\Documents\Documents\Dropbox\Dropbox\Uni Work\FINAL PROJECT\OculusSDK\LibOVR\Include" /I"F:\Ogre1.9RC2\btogre-master\include" /I"F:\Ogre1.9RC2\btogre-master" /I"F:\Ogre1.9RC2\OGRE-SDK-1.9.0-vc110-x86-02.11.2013\include\OgreProcedural" /Z7 /nologo /W3 /WX- /Od /Oy- /GL /D OVR_BUILD_DEBUG /D WIN32 /D _DEBUG /D _WINDOWS /D _MBCS /Gm /EHsc /RTC1 /MDd /GS /fp:precise /Zc:wchar_t /Zc:forScope /Fo"OBJ\DEBUG-X86\\" /Fd"BIN\DEBUG\SPACEGAME_D.PDB" /Gd /TP /analyze- F:\DOCUMENTS\DOCUMENTS\DROPBOX\DROPBOX\UNI WORK\FINAL PROJECT\FINALPROJECT\IMPLEMENTATION\SPACEGAME\SPACEGAME\PHYSICS.CPP
^F:\DOCUMENTS\DOCUMENTS\DROPBOX\DROPBOX\UNI WORK\FINAL PROJECT\FINALPROJECT\IMPLEMENTATION\SPACEGAME\SPACEGAME\PLAYERSHIP.CPP
/c /I"F:\Ogre1.9RC2\OGRE-SDK-1.9.0-vc110-x86-02.11.2013\include" /I"F:\Ogre1.9RC2\OGRE-SDK-1.9.0-vc110-x86-02.11.2013\include\OIS" /I"F:\Ogre1.9RC2\OGRE-SDK-1.9.0-vc110-x86-02.11.2013\include\OGRE" /I"F:\Ogre1.9RC2\OGRE-SDK-1.9.0-vc110-x86-02.11.2013\include\OGRE\Overlay" /I"F:\Ogre1.9RC2\boost-1.55-rev86545-vc110-x86-02.11.2013" /I"F:\Documents\Documents\Dropbox\Dropbox\Uni Work\FINAL PROJECT\OculusSDK\LibOVR\Include" /I"F:\Ogre1.9RC2\btogre-master\include" /I"F:\Ogre1.9RC2\btogre-master" /I"F:\Ogre1.9RC2\OGRE-SDK-1.9.0-vc110-x86-02.11.2013\include\OgreProcedural" /Z7 /nologo /W3 /WX- /Od /Oy- /GL /D OVR_BUILD_DEBUG /D WIN32 /D _DEBUG /D _WINDOWS /D _MBCS /Gm /EHsc /RTC1 /MDd /GS /fp:precise /Zc:wchar_t /Zc:forScope /Fo"OBJ\DEBUG-X86\\" /Fd"BIN\DEBUG\SPACEGAME_D.PDB" /Gd /TP /analyze- F:\DOCUMENTS\DOCUMENTS\DROPBOX\DROPBOX\UNI WORK\FINAL PROJECT\FINALPROJECT\IMPLEMENTATION\SPACEGAME\SPACEGAME\PLAYERSHIP.CPP
^F:\DOCUMENTS\DOCUMENTS\DROPBOX\DROPBOX\UNI WORK\FINAL PROJECT\FINALPROJECT\IMPLEMENTATION\SPACEGAME\SPACEGAME\SPACECRAFT.CPP
/c /I"F:\Ogre1.9RC2\OGRE-SDK-1.9.0-vc110-x86-02.11.2013\include" /I"F:\Ogre1.9RC2\OGRE-SDK-1.9.0-vc110-x86-02.11.2013\include\OIS" /I"F:\Ogre1.9RC2\OGRE-SDK-1.9.0-vc110-x86-02.11.2013\include\OGRE" /I"F:\Ogre1.9RC2\OGRE-SDK-1.9.0-vc110-x86-02.11.2013\include\OGRE\Overlay" /I"F:\Ogre1.9RC2\boost-1.55-rev86545-vc110-x86-02.11.2013" /I"F:\Documents\Documents\Dropbox\Dropbox\Uni Work\FINAL PROJECT\OculusSDK\LibOVR\Include" /I"F:\Ogre1.9RC2\btogre-master\include" /I"F:\Ogre1.9RC2\btogre-master" /I"F:\Ogre1.9RC2\OGRE-SDK-1.9.0-vc110-x86-02.11.2013\include\OgreProcedural" /Z7 /nologo /W3 /WX- /Od /Oy- /GL /D OVR_BUILD_DEBUG /D WIN32 /D _DEBUG /D _WINDOWS /D _MBCS /Gm /EHsc /RTC1 /MDd /GS /fp:precise /Zc:wchar_t /Zc:forScope /Fo"OBJ\DEBUG-X86\\" /Fd"BIN\DEBUG\SPACEGAME_D.PDB" /Gd /TP /analyze- F:\DOCUMENTS\DOCUMENTS\DROPBOX\DROPBOX\UNI WORK\FINAL PROJECT\FINALPROJECT\IMPLEMENTATION\SPACEGAME\SPACEGAME\SPACECRAFT.CPP
