material Examples/Flare
{
	technique
	{
		pass
		{
			lighting off
			scene_blend add
			depth_write off
			diffuse vertexcolour

			texture_unit
			{
				texture flare.png
			}
		}
	}
}
material Examples/FlareSun
{
	technique
	{
		pass
		{
			lighting off
			scene_blend add
			depth_write off
			diffuse vertexcolour

			texture_unit
			{
				texture flaresun.png
			}
		}
	}
}
material Examples/Flare2
{
	technique
	{
		pass
		{
			lighting off
			scene_blend add
			depth_write off
			diffuse vertexcolour

			texture_unit
			{
				texture flaretrail.png
			}
		}
	}
}
material Examples/Flare3
{
	technique
	{
		pass
		{
			lighting off
			scene_blend alpha_blend
			depth_write off
			diffuse vertexcolour

			texture_unit
			{
				texture flare_alpha.dds
			}
		}
	}
}
material Examples/FlarePointSprite
{
	technique
	{
		pass
		{
			lighting off
			scene_blend add
			depth_write off
			diffuse vertexcolour

			point_sprites on
			point_size 2
			point_size_attenuation on

			texture_unit
			{
				texture flare.png
			}
		}
	}
}

material Examples/LightRibbonTrail
{
	technique
	{
		pass
		{
			lighting off
			scene_blend add
			depth_write off
			diffuse vertexcolour

			texture_unit
			{
				texture ribbonband.png 1d
				tex_address_mode clamp
				filtering none
			}
		}
	}
}

material Crosshair
{
	technique
	{
		pass
		{
			lighting off
			scene_blend alpha_blend
			depth_write off
			diffuse vertexcolour

			texture_unit
			{
				texture crosshair.png
			}
		}
	}
}