^F:\DOCUMENTS\DOCUMENTS\DROPBOX\DROPBOX\UNI WORK\FINAL PROJECT\FINALPROJECT\IMPLEMENTATION\SPACEGAME\SPACEGAME\ENGINE.CPP
/c /I..\AdvancedOgreFramework /I"F:\Ogre1.9RC2\OGRE-SDK-1.9.0-vc110-x86-02.11.2013\include" /I"F:\Ogre1.9RC2\OGRE-SDK-1.9.0-vc110-x86-02.11.2013\include\OIS" /I"F:\Ogre1.9RC2\OGRE-SDK-1.9.0-vc110-x86-02.11.2013\include\OGRE" /I"F:\Ogre1.9RC2\OGRE-SDK-1.9.0-vc110-x86-02.11.2013\include\OGRE\Overlay" /I"F:\Ogre1.9RC2\boost-1.55-rev86545-vc110-x86-02.11.2013" /I"F:\Documents\Documents\Dropbox\Dropbox\Uni Work\FINAL PROJECT\OculusSDK\LibOVR\Include" /I"F:\Ogre1.9RC2\btogre-master\include" /I"F:\Ogre1.9RC2\btogre-master" /Zi /nologo /W3 /WX- /O2 /Oi /Oy- /GL /D WIN32 /D NDEBUG /D _WINDOWS /D _MBCS /Gm- /EHsc /MD /GS /Gy /fp:precise /Zc:wchar_t /Zc:forScope /Fo"OBJ\RELEASE-X86\\" /Fd"F:\DOCUMENTS\DOCUMENTS\DROPBOX\DROPBOX\UNI WORK\FINAL PROJECT\FINALPROJECT\IMPLEMENTATION\SPACEGAME\\BIN\RELEASE\SPACEGAME.PDB" /Gd /TP /analyze- F:\DOCUMENTS\DOCUMENTS\DROPBOX\DROPBOX\UNI WORK\FINAL PROJECT\FINALPROJECT\IMPLEMENTATION\SPACEGAME\SPACEGAME\ENGINE.CPP
^F:\DOCUMENTS\DOCUMENTS\DROPBOX\DROPBOX\UNI WORK\FINAL PROJECT\FINALPROJECT\IMPLEMENTATION\SPACEGAME\SPACEGAME\ENGINESTATEMANAGER.CPP
/c /I..\AdvancedOgreFramework /I"F:\Ogre1.9RC2\OGRE-SDK-1.9.0-vc110-x86-02.11.2013\include" /I"F:\Ogre1.9RC2\OGRE-SDK-1.9.0-vc110-x86-02.11.2013\include\OIS" /I"F:\Ogre1.9RC2\OGRE-SDK-1.9.0-vc110-x86-02.11.2013\include\OGRE" /I"F:\Ogre1.9RC2\OGRE-SDK-1.9.0-vc110-x86-02.11.2013\include\OGRE\Overlay" /I"F:\Ogre1.9RC2\boost-1.55-rev86545-vc110-x86-02.11.2013" /I"F:\Documents\Documents\Dropbox\Dropbox\Uni Work\FINAL PROJECT\OculusSDK\LibOVR\Include" /I"F:\Ogre1.9RC2\btogre-master\include" /I"F:\Ogre1.9RC2\btogre-master" /Zi /nologo /W3 /WX- /O2 /Oi /Oy- /GL /D WIN32 /D NDEBUG /D _WINDOWS /D _MBCS /Gm- /EHsc /MD /GS /Gy /fp:precise /Zc:wchar_t /Zc:forScope /Fo"OBJ\RELEASE-X86\\" /Fd"F:\DOCUMENTS\DOCUMENTS\DROPBOX\DROPBOX\UNI WORK\FINAL PROJECT\FINALPROJECT\IMPLEMENTATION\SPACEGAME\\BIN\RELEASE\SPACEGAME.PDB" /Gd /TP /analyze- F:\DOCUMENTS\DOCUMENTS\DROPBOX\DROPBOX\UNI WORK\FINAL PROJECT\FINALPROJECT\IMPLEMENTATION\SPACEGAME\SPACEGAME\ENGINESTATEMANAGER.CPP
^F:\DOCUMENTS\DOCUMENTS\DROPBOX\DROPBOX\UNI WORK\FINAL PROJECT\FINALPROJECT\IMPLEMENTATION\SPACEGAME\SPACEGAME\GAME.CPP
/c /I..\AdvancedOgreFramework /I"F:\Ogre1.9RC2\OGRE-SDK-1.9.0-vc110-x86-02.11.2013\include" /I"F:\Ogre1.9RC2\OGRE-SDK-1.9.0-vc110-x86-02.11.2013\include\OIS" /I"F:\Ogre1.9RC2\OGRE-SDK-1.9.0-vc110-x86-02.11.2013\include\OGRE" /I"F:\Ogre1.9RC2\OGRE-SDK-1.9.0-vc110-x86-02.11.2013\include\OGRE\Overlay" /I"F:\Ogre1.9RC2\boost-1.55-rev86545-vc110-x86-02.11.2013" /I"F:\Documents\Documents\Dropbox\Dropbox\Uni Work\FINAL PROJECT\OculusSDK\LibOVR\Include" /I"F:\Ogre1.9RC2\btogre-master\include" /I"F:\Ogre1.9RC2\btogre-master" /Zi /nologo /W3 /WX- /O2 /Oi /Oy- /GL /D WIN32 /D NDEBUG /D _WINDOWS /D _MBCS /Gm- /EHsc /MD /GS /Gy /fp:precise /Zc:wchar_t /Zc:forScope /Fo"OBJ\RELEASE-X86\\" /Fd"F:\DOCUMENTS\DOCUMENTS\DROPBOX\DROPBOX\UNI WORK\FINAL PROJECT\FINALPROJECT\IMPLEMENTATION\SPACEGAME\\BIN\RELEASE\SPACEGAME.PDB" /Gd /TP /analyze- F:\DOCUMENTS\DOCUMENTS\DROPBOX\DROPBOX\UNI WORK\FINAL PROJECT\FINALPROJECT\IMPLEMENTATION\SPACEGAME\SPACEGAME\GAME.CPP
^F:\DOCUMENTS\DOCUMENTS\DROPBOX\DROPBOX\UNI WORK\FINAL PROJECT\FINALPROJECT\IMPLEMENTATION\SPACEGAME\SPACEGAME\GAMESTATE.CPP
/c /I..\AdvancedOgreFramework /I"F:\Ogre1.9RC2\OGRE-SDK-1.9.0-vc110-x86-02.11.2013\include" /I"F:\Ogre1.9RC2\OGRE-SDK-1.9.0-vc110-x86-02.11.2013\include\OIS" /I"F:\Ogre1.9RC2\OGRE-SDK-1.9.0-vc110-x86-02.11.2013\include\OGRE" /I"F:\Ogre1.9RC2\OGRE-SDK-1.9.0-vc110-x86-02.11.2013\include\OGRE\Overlay" /I"F:\Ogre1.9RC2\boost-1.55-rev86545-vc110-x86-02.11.2013" /I"F:\Documents\Documents\Dropbox\Dropbox\Uni Work\FINAL PROJECT\OculusSDK\LibOVR\Include" /I"F:\Ogre1.9RC2\btogre-master\include" /I"F:\Ogre1.9RC2\btogre-master" /Zi /nologo /W3 /WX- /O2 /Oi /Oy- /GL /D WIN32 /D NDEBUG /D _WINDOWS /D _MBCS /Gm- /EHsc /MD /GS /Gy /fp:precise /Zc:wchar_t /Zc:forScope /Fo"OBJ\RELEASE-X86\\" /Fd"F:\DOCUMENTS\DOCUMENTS\DROPBOX\DROPBOX\UNI WORK\FINAL PROJECT\FINALPROJECT\IMPLEMENTATION\SPACEGAME\\BIN\RELEASE\SPACEGAME.PDB" /Gd /TP /analyze- F:\DOCUMENTS\DOCUMENTS\DROPBOX\DROPBOX\UNI WORK\FINAL PROJECT\FINALPROJECT\IMPLEMENTATION\SPACEGAME\SPACEGAME\GAMESTATE.CPP
^F:\DOCUMENTS\DOCUMENTS\DROPBOX\DROPBOX\UNI WORK\FINAL PROJECT\FINALPROJECT\IMPLEMENTATION\SPACEGAME\SPACEGAME\MAIN.CPP
/c /I..\AdvancedOgreFramework /I"F:\Ogre1.9RC2\OGRE-SDK-1.9.0-vc110-x86-02.11.2013\include" /I"F:\Ogre1.9RC2\OGRE-SDK-1.9.0-vc110-x86-02.11.2013\include\OIS" /I"F:\Ogre1.9RC2\OGRE-SDK-1.9.0-vc110-x86-02.11.2013\include\OGRE" /I"F:\Ogre1.9RC2\OGRE-SDK-1.9.0-vc110-x86-02.11.2013\include\OGRE\Overlay" /I"F:\Ogre1.9RC2\boost-1.55-rev86545-vc110-x86-02.11.2013" /I"F:\Documents\Documents\Dropbox\Dropbox\Uni Work\FINAL PROJECT\OculusSDK\LibOVR\Include" /I"F:\Ogre1.9RC2\btogre-master\include" /I"F:\Ogre1.9RC2\btogre-master" /Zi /nologo /W3 /WX- /O2 /Oi /Oy- /GL /D WIN32 /D NDEBUG /D _WINDOWS /D _MBCS /Gm- /EHsc /MD /GS /Gy /fp:precise /Zc:wchar_t /Zc:forScope /Fo"OBJ\RELEASE-X86\\" /Fd"F:\DOCUMENTS\DOCUMENTS\DROPBOX\DROPBOX\UNI WORK\FINAL PROJECT\FINALPROJECT\IMPLEMENTATION\SPACEGAME\\BIN\RELEASE\SPACEGAME.PDB" /Gd /TP /analyze- F:\DOCUMENTS\DOCUMENTS\DROPBOX\DROPBOX\UNI WORK\FINAL PROJECT\FINALPROJECT\IMPLEMENTATION\SPACEGAME\SPACEGAME\MAIN.CPP
^F:\DOCUMENTS\DOCUMENTS\DROPBOX\DROPBOX\UNI WORK\FINAL PROJECT\FINALPROJECT\IMPLEMENTATION\SPACEGAME\SPACEGAME\MENUSTATE.CPP
/c /I..\AdvancedOgreFramework /I"F:\Ogre1.9RC2\OGRE-SDK-1.9.0-vc110-x86-02.11.2013\include" /I"F:\Ogre1.9RC2\OGRE-SDK-1.9.0-vc110-x86-02.11.2013\include\OIS" /I"F:\Ogre1.9RC2\OGRE-SDK-1.9.0-vc110-x86-02.11.2013\include\OGRE" /I"F:\Ogre1.9RC2\OGRE-SDK-1.9.0-vc110-x86-02.11.2013\include\OGRE\Overlay" /I"F:\Ogre1.9RC2\boost-1.55-rev86545-vc110-x86-02.11.2013" /I"F:\Documents\Documents\Dropbox\Dropbox\Uni Work\FINAL PROJECT\OculusSDK\LibOVR\Include" /I"F:\Ogre1.9RC2\btogre-master\include" /I"F:\Ogre1.9RC2\btogre-master" /Zi /nologo /W3 /WX- /O2 /Oi /Oy- /GL /D WIN32 /D NDEBUG /D _WINDOWS /D _MBCS /Gm- /EHsc /MD /GS /Gy /fp:precise /Zc:wchar_t /Zc:forScope /Fo"OBJ\RELEASE-X86\\" /Fd"F:\DOCUMENTS\DOCUMENTS\DROPBOX\DROPBOX\UNI WORK\FINAL PROJECT\FINALPROJECT\IMPLEMENTATION\SPACEGAME\\BIN\RELEASE\SPACEGAME.PDB" /Gd /TP /analyze- F:\DOCUMENTS\DOCUMENTS\DROPBOX\DROPBOX\UNI WORK\FINAL PROJECT\FINALPROJECT\IMPLEMENTATION\SPACEGAME\SPACEGAME\MENUSTATE.CPP
^F:\DOCUMENTS\DOCUMENTS\DROPBOX\DROPBOX\UNI WORK\FINAL PROJECT\FINALPROJECT\IMPLEMENTATION\SPACEGAME\SPACEGAME\OCULUS.CPP
/c /I..\AdvancedOgreFramework /I"F:\Ogre1.9RC2\OGRE-SDK-1.9.0-vc110-x86-02.11.2013\include" /I"F:\Ogre1.9RC2\OGRE-SDK-1.9.0-vc110-x86-02.11.2013\include\OIS" /I"F:\Ogre1.9RC2\OGRE-SDK-1.9.0-vc110-x86-02.11.2013\include\OGRE" /I"F:\Ogre1.9RC2\OGRE-SDK-1.9.0-vc110-x86-02.11.2013\include\OGRE\Overlay" /I"F:\Ogre1.9RC2\boost-1.55-rev86545-vc110-x86-02.11.2013" /I"F:\Documents\Documents\Dropbox\Dropbox\Uni Work\FINAL PROJECT\OculusSDK\LibOVR\Include" /I"F:\Ogre1.9RC2\btogre-master\include" /I"F:\Ogre1.9RC2\btogre-master" /Zi /nologo /W3 /WX- /O2 /Oi /Oy- /GL /D WIN32 /D NDEBUG /D _WINDOWS /D _MBCS /Gm- /EHsc /MD /GS /Gy /fp:precise /Zc:wchar_t /Zc:forScope /Fo"OBJ\RELEASE-X86\\" /Fd"F:\DOCUMENTS\DOCUMENTS\DROPBOX\DROPBOX\UNI WORK\FINAL PROJECT\FINALPROJECT\IMPLEMENTATION\SPACEGAME\\BIN\RELEASE\SPACEGAME.PDB" /Gd /TP /analyze- F:\DOCUMENTS\DOCUMENTS\DROPBOX\DROPBOX\UNI WORK\FINAL PROJECT\FINALPROJECT\IMPLEMENTATION\SPACEGAME\SPACEGAME\OCULUS.CPP
^F:\DOCUMENTS\DOCUMENTS\DROPBOX\DROPBOX\UNI WORK\FINAL PROJECT\FINALPROJECT\IMPLEMENTATION\SPACEGAME\SPACEGAME\PAUSESTATE.CPP
/c /I..\AdvancedOgreFramework /I"F:\Ogre1.9RC2\OGRE-SDK-1.9.0-vc110-x86-02.11.2013\include" /I"F:\Ogre1.9RC2\OGRE-SDK-1.9.0-vc110-x86-02.11.2013\include\OIS" /I"F:\Ogre1.9RC2\OGRE-SDK-1.9.0-vc110-x86-02.11.2013\include\OGRE" /I"F:\Ogre1.9RC2\OGRE-SDK-1.9.0-vc110-x86-02.11.2013\include\OGRE\Overlay" /I"F:\Ogre1.9RC2\boost-1.55-rev86545-vc110-x86-02.11.2013" /I"F:\Documents\Documents\Dropbox\Dropbox\Uni Work\FINAL PROJECT\OculusSDK\LibOVR\Include" /I"F:\Ogre1.9RC2\btogre-master\include" /I"F:\Ogre1.9RC2\btogre-master" /Zi /nologo /W3 /WX- /O2 /Oi /Oy- /GL /D WIN32 /D NDEBUG /D _WINDOWS /D _MBCS /Gm- /EHsc /MD /GS /Gy /fp:precise /Zc:wchar_t /Zc:forScope /Fo"OBJ\RELEASE-X86\\" /Fd"F:\DOCUMENTS\DOCUMENTS\DROPBOX\DROPBOX\UNI WORK\FINAL PROJECT\FINALPROJECT\IMPLEMENTATION\SPACEGAME\\BIN\RELEASE\SPACEGAME.PDB" /Gd /TP /analyze- F:\DOCUMENTS\DOCUMENTS\DROPBOX\DROPBOX\UNI WORK\FINAL PROJECT\FINALPROJECT\IMPLEMENTATION\SPACEGAME\SPACEGAME\PAUSESTATE.CPP
^F:\DOCUMENTS\DOCUMENTS\DROPBOX\DROPBOX\UNI WORK\FINAL PROJECT\FINALPROJECT\IMPLEMENTATION\SPACEGAME\SPACEGAME\GAMEENTITY.CPP
/c /I..\AdvancedOgreFramework /I"F:\Ogre1.9RC2\OGRE-SDK-1.9.0-vc110-x86-02.11.2013\include" /I"F:\Ogre1.9RC2\OGRE-SDK-1.9.0-vc110-x86-02.11.2013\include\OIS" /I"F:\Ogre1.9RC2\OGRE-SDK-1.9.0-vc110-x86-02.11.2013\include\OGRE" /I"F:\Ogre1.9RC2\OGRE-SDK-1.9.0-vc110-x86-02.11.2013\include\OGRE\Overlay" /I"F:\Ogre1.9RC2\boost-1.55-rev86545-vc110-x86-02.11.2013" /I"F:\Documents\Documents\Dropbox\Dropbox\Uni Work\FINAL PROJECT\OculusSDK\LibOVR\Include" /I"F:\Ogre1.9RC2\btogre-master\include" /I"F:\Ogre1.9RC2\btogre-master" /Zi /nologo /W3 /WX- /O2 /Oi /Oy- /GL /D WIN32 /D NDEBUG /D _WINDOWS /D _MBCS /Gm- /EHsc /MD /GS /Gy /fp:precise /Zc:wchar_t /Zc:forScope /Fo"OBJ\RELEASE-X86\\" /Fd"F:\DOCUMENTS\DOCUMENTS\DROPBOX\DROPBOX\UNI WORK\FINAL PROJECT\FINALPROJECT\IMPLEMENTATION\SPACEGAME\\BIN\RELEASE\SPACEGAME.PDB" /Gd /TP /analyze- F:\DOCUMENTS\DOCUMENTS\DROPBOX\DROPBOX\UNI WORK\FINAL PROJECT\FINALPROJECT\IMPLEMENTATION\SPACEGAME\SPACEGAME\GAMEENTITY.CPP
^F:\DOCUMENTS\DOCUMENTS\DROPBOX\DROPBOX\UNI WORK\FINAL PROJECT\FINALPROJECT\IMPLEMENTATION\SPACEGAME\SPACEGAME\MOVEABLEOBJECT.CPP
/c /I..\AdvancedOgreFramework /I"F:\Ogre1.9RC2\OGRE-SDK-1.9.0-vc110-x86-02.11.2013\include" /I"F:\Ogre1.9RC2\OGRE-SDK-1.9.0-vc110-x86-02.11.2013\include\OIS" /I"F:\Ogre1.9RC2\OGRE-SDK-1.9.0-vc110-x86-02.11.2013\include\OGRE" /I"F:\Ogre1.9RC2\OGRE-SDK-1.9.0-vc110-x86-02.11.2013\include\OGRE\Overlay" /I"F:\Ogre1.9RC2\boost-1.55-rev86545-vc110-x86-02.11.2013" /I"F:\Documents\Documents\Dropbox\Dropbox\Uni Work\FINAL PROJECT\OculusSDK\LibOVR\Include" /I"F:\Ogre1.9RC2\btogre-master\include" /I"F:\Ogre1.9RC2\btogre-master" /Zi /nologo /W3 /WX- /O2 /Oi /Oy- /GL /D WIN32 /D NDEBUG /D _WINDOWS /D _MBCS /Gm- /EHsc /MD /GS /Gy /fp:precise /Zc:wchar_t /Zc:forScope /Fo"OBJ\RELEASE-X86\\" /Fd"F:\DOCUMENTS\DOCUMENTS\DROPBOX\DROPBOX\UNI WORK\FINAL PROJECT\FINALPROJECT\IMPLEMENTATION\SPACEGAME\\BIN\RELEASE\SPACEGAME.PDB" /Gd /TP /analyze- F:\DOCUMENTS\DOCUMENTS\DROPBOX\DROPBOX\UNI WORK\FINAL PROJECT\FINALPROJECT\IMPLEMENTATION\SPACEGAME\SPACEGAME\MOVEABLEOBJECT.CPP
^F:\DOCUMENTS\DOCUMENTS\DROPBOX\DROPBOX\UNI WORK\FINAL PROJECT\FINALPROJECT\IMPLEMENTATION\SPACEGAME\SPACEGAME\PLAYERSHIP.CPP
/c /I..\AdvancedOgreFramework /I"F:\Ogre1.9RC2\OGRE-SDK-1.9.0-vc110-x86-02.11.2013\include" /I"F:\Ogre1.9RC2\OGRE-SDK-1.9.0-vc110-x86-02.11.2013\include\OIS" /I"F:\Ogre1.9RC2\OGRE-SDK-1.9.0-vc110-x86-02.11.2013\include\OGRE" /I"F:\Ogre1.9RC2\OGRE-SDK-1.9.0-vc110-x86-02.11.2013\include\OGRE\Overlay" /I"F:\Ogre1.9RC2\boost-1.55-rev86545-vc110-x86-02.11.2013" /I"F:\Documents\Documents\Dropbox\Dropbox\Uni Work\FINAL PROJECT\OculusSDK\LibOVR\Include" /I"F:\Ogre1.9RC2\btogre-master\include" /I"F:\Ogre1.9RC2\btogre-master" /Zi /nologo /W3 /WX- /O2 /Oi /Oy- /GL /D WIN32 /D NDEBUG /D _WINDOWS /D _MBCS /Gm- /EHsc /MD /GS /Gy /fp:precise /Zc:wchar_t /Zc:forScope /Fo"OBJ\RELEASE-X86\\" /Fd"F:\DOCUMENTS\DOCUMENTS\DROPBOX\DROPBOX\UNI WORK\FINAL PROJECT\FINALPROJECT\IMPLEMENTATION\SPACEGAME\\BIN\RELEASE\SPACEGAME.PDB" /Gd /TP /analyze- F:\DOCUMENTS\DOCUMENTS\DROPBOX\DROPBOX\UNI WORK\FINAL PROJECT\FINALPROJECT\IMPLEMENTATION\SPACEGAME\SPACEGAME\PLAYERSHIP.CPP
^F:\DOCUMENTS\DOCUMENTS\DROPBOX\DROPBOX\UNI WORK\FINAL PROJECT\FINALPROJECT\IMPLEMENTATION\SPACEGAME\SPACEGAME\SPACECRAFT.CPP
/c /I..\AdvancedOgreFramework /I"F:\Ogre1.9RC2\OGRE-SDK-1.9.0-vc110-x86-02.11.2013\include" /I"F:\Ogre1.9RC2\OGRE-SDK-1.9.0-vc110-x86-02.11.2013\include\OIS" /I"F:\Ogre1.9RC2\OGRE-SDK-1.9.0-vc110-x86-02.11.2013\include\OGRE" /I"F:\Ogre1.9RC2\OGRE-SDK-1.9.0-vc110-x86-02.11.2013\include\OGRE\Overlay" /I"F:\Ogre1.9RC2\boost-1.55-rev86545-vc110-x86-02.11.2013" /I"F:\Documents\Documents\Dropbox\Dropbox\Uni Work\FINAL PROJECT\OculusSDK\LibOVR\Include" /I"F:\Ogre1.9RC2\btogre-master\include" /I"F:\Ogre1.9RC2\btogre-master" /Zi /nologo /W3 /WX- /O2 /Oi /Oy- /GL /D WIN32 /D NDEBUG /D _WINDOWS /D _MBCS /Gm- /EHsc /MD /GS /Gy /fp:precise /Zc:wchar_t /Zc:forScope /Fo"OBJ\RELEASE-X86\\" /Fd"F:\DOCUMENTS\DOCUMENTS\DROPBOX\DROPBOX\UNI WORK\FINAL PROJECT\FINALPROJECT\IMPLEMENTATION\SPACEGAME\\BIN\RELEASE\SPACEGAME.PDB" /Gd /TP /analyze- F:\DOCUMENTS\DOCUMENTS\DROPBOX\DROPBOX\UNI WORK\FINAL PROJECT\FINALPROJECT\IMPLEMENTATION\SPACEGAME\SPACEGAME\SPACECRAFT.CPP
